<svg viewBox="0 0 64 64" xmlns="http://www.w3.org/2000/svg">
  <g fill="hsl(85,100%,35%)">
    <circle cx="8" cy="8" r="3.75"/>
    <circle cx="8" cy="16" r="3.75"/>
    <circle cx="8" cy="24" r="3.75"/>
    <circle cx="8" cy="32" r="3.75"/>
    <circle cx="8" cy="40" r="3.75"/>
    <circle cx="8" cy="48" r="3.75"/>
    <circle cx="8" cy="56" r="3.75"/>
    <circle cx="16" cy="16" r="3.75"/>
    <circle cx="16" cy="24" r="3.75"/>
    <circle cx="16" cy="32" r="3.75"/>
    <circle cx="16" cy="40" r="3.75"/>
    <circle cx="16" cy="48" r="3.75"/>
    <circle cx="48" cy="24" r="3.75"/>
    <circle cx="48" cy="32" r="3.75"/>
    <circle cx="48" cy="40" r="3.75"/>
    <circle cx="56" cy="32" r="3.75"/>
  </g>
  <g fill="hsl(85,100%,60%)">
    <circle cx="24" cy="24" r="3.75"/>
    <circle cx="24" cy="32" r="3.75"/>
    <circle cx="24" cy="40" r="3.75"/>
    <circle cx="32" cy="8" r="3.75"/>
    <circle cx="32" cy="16" r="3.75"/>
    <circle cx="32" cy="24" r="3.75"/>
    <circle cx="32" cy="32" r="3.75"/>
    <circle cx="32" cy="40" r="3.75"/>
    <circle cx="32" cy="48" r="3.75"/>
    <circle cx="32" cy="56" r="3.75"/>
    <circle cx="40" cy="16" r="3.75"/>
    <circle cx="40" cy="24" r="3.75"/>
    <circle cx="40" cy="32" r="3.75"/>
    <circle cx="40" cy="40" r="3.75"/>
    <circle cx="40" cy="48" r="3.75"/>
  </g>
</svg>
